No;Nama;Absensi;Masa Kerja(th);Jabatan;Nilai Kinerja;Skor A;Skor M;Skor J;Skor K;J Absensi;J Masa;J Jabatan;J Kinerja;Total;Jumlah
1;Ni Luh Dwi Antari;12;10.5;Manager;37;1.0;0.34300745;0.46174935;0.67945707;0.47928005;0.1094621;0.029397214;0.09371788;0.7118572;17,455,362.00
2;Putu Rawan Darmawan;8;12.5;Manager;36;1.0;0.34300745;0.46174935;0.67945707;0.47928005;0.1094621;0.029397214;0.09371788;0.7118572;17,455,362.00
3;Gusti Ngurah Sudira;16;1.5;Supervisor;30;0.0;0.21964498;0.3157556;0.32054296;0.0;0.07009411;0.020102542;0.044212665;0.13440932;3,295,834.20
4;IB Ketut Santika;22;1.3;Supervisor;32;0.0;0.21964498;0.3157556;0.32054296;0.0;0.07009411;0.020102542;0.044212665;0.13440932;3,295,834.20
5;Ni Wayan Suartini;13;12.8;Supervisor;37;1.0;0.34300745;0.3157556;0.67945707;0.47928005;0.1094621;0.020102542;0.09371788;0.7025626;17,227,450.00
6;I Gde Suroto ;12;7.7;Supervisor;36;1.0;0.26947773;0.3157556;0.67945707;0.47928005;0.085996956;0.020102542;0.09371788;0.6790974;16,652,064.00
7;IB Putra Parwata;9;6.9;Supervisor;30;1.0;0.26947773;0.3157556;0.32054296;0.47928005;0.085996956;0.020102542;0.044212665;0.6295922;15,438,153.00
8;Swastika Widya Mahasena;14;1.2;Supervisor;32;0.0;0.21964498;0.3157556;0.32054296;0.0;0.07009411;0.020102542;0.044212665;0.13440932;3,295,834.20
9;Ni Luh Putu Sastrawati;29;15.5;Staff;30;0.0;0.34300745;0.222495;0.32054296;0.0;0.1094621;0.0141651165;0.044212665;0.16783988;4,115,581.20
10;Ni Wayan Ita Purnama Dewi;18;5.7;Staff;19;0.0;0.26947773;0.222495;0.0;0.0;0.085996956;0.0141651165;0.0;0.100162074;2,456,061.80
11;Nyoman Triwantara Putra;32;8.6;Staff;19;0.0;0.26947773;0.222495;0.0;0.0;0.085996956;0.0141651165;0.0;0.100162074;2,456,061.80
12;Gusti Putu Tastra Adi Kusuma;29;6.1;Staff;18;0.0;0.26947773;0.222495;0.0;0.0;0.085996956;0.0141651165;0.0;0.100162074;2,456,061.80
13;Agus Gede Subaryana;36;1.2;Staff;20;0.0;0.21964498;0.222495;0.0;0.0;0.07009411;0.0141651165;0.0;0.08425923;2,066,110.10
14;Gede Penjas Asmara;25;3.5;Staff;22;0.0;0.21964498;0.222495;0.0;0.0;0.07009411;0.0141651165;0.0;0.08425923;2,066,110.10
15;Made Suardika Pramana;24;2.4;Staff;18;0.0;0.21964498;0.222495;0.0;0.0;0.07009411;0.0141651165;0.0;0.08425923;2,066,110.10
16;I Putu Utama Arta;28;2.4;Staff;19;0.0;0.21964498;0.222495;0.0;0.0;0.07009411;0.0141651165;0.0;0.08425923;2,066,110.10
17;Ni Wayan Karmini;8;12.5;Staff;38;1.0;0.34300745;0.222495;0.67945707;0.47928005;0.1094621;0.0141651165;0.09371788;0.6966251;17,081,858.00
18;Nyoman Nuriani;9;9.4;Staff;22;1.0;0.26947773;0.222495;0.0;0.47928005;0.085996956;0.0141651165;0.0;0.5794421;14,208,428.00
19;Loka Weda Nurhayati;5;5;Staff;21;1.0;0.21964498;0.222495;0.0;0.47928005;0.07009411;0.0141651165;0.0;0.56353927;13,818,477.00
20;Kadek Agus Setiawan;8;6.1;Staff;24;1.0;0.26947773;0.222495;0.0;0.47928005;0.085996956;0.0141651165;0.0;0.5794421;14,208,428.00
21;Putu Rosadi Artha;14;5.2;Staff;23;0.0;0.26947773;0.222495;0.0;0.0;0.085996956;0.0141651165;0.0;0.100162074;2,456,061.80
22;Ni Ketut Kariani;10;2.4;Staff;22;1.0;0.21964498;0.222495;0.0;0.47928005;0.07009411;0.0141651165;0.0;0.56353927;13,818,477.00
23;Indah Purnama Dewi;7;1.6;Staff;18;1.0;0.21964498;0.222495;0.0;0.47928005;0.07009411;0.0141651165;0.0;0.56353927;13,818,477.00
24;I Wayan Purwanindita;8;1.2;Staff;18;1.0;0.21964498;0.222495;0.0;0.47928005;0.07009411;0.0141651165;0.0;0.56353927;13,818,477.00
25;I Made Suratna;7;2.9;Staff;22;1.0;0.21964498;0.222495;0.0;0.47928005;0.07009411;0.0141651165;0.0;0.56353927;13,818,477.00
26;Ni Putu Andriani;8;1.1;Staff;23;1.0;0.21964498;0.222495;0.0;0.47928005;0.07009411;0.0141651165;0.0;0.56353927;13,818,477.00
27;Made Adi Palguna;10;1.5;Staff;23;1.0;0.21964498;0.222495;0.0;0.47928005;0.07009411;0.0141651165;0.0;0.56353927;13,818,477.00
28;A.A. Putu Mahendra Putra;6;1.4;Staff;22;1.0;0.21964498;0.222495;0.0;0.47928005;0.07009411;0.0141651165;0.0;0.56353927;13,818,477.00
29;I Wayan Gunarta;13;2.4;Staff;17;1.0;0.21964498;0.222495;0.0;0.47928005;0.07009411;0.0141651165;0.0;0.56353927;13,818,477.00
30;Nyoman Sri Bagiajati;11;1.2;Staff;36;1.0;0.21964498;0.222495;0.67945707;0.47928005;0.07009411;0.0141651165;0.09371788;0.65725714;16,116,521.00
